D:\ComScience\Year3\Term 1\SoftDev\AlbumProject\src\main\java\com\mycompany\albumproject\model\ReportSale.java
D:\ComScience\Year3\Term 1\SoftDev\AlbumProject\src\main\java\com\mycompany\albumproject\poc\TestReportSale.java
D:\ComScience\Year3\Term 1\SoftDev\AlbumProject\src\main\java\com\mycompany\albumproject\album.java
D:\ComScience\Year3\Term 1\SoftDev\AlbumProject\src\main\java\com\mycompany\albumproject\dao\SaleDao.java
D:\ComScience\Year3\Term 1\SoftDev\AlbumProject\src\main\java\com\mycompany\albumproject\service\ReportService.java
D:\ComScience\Year3\Term 1\SoftDev\AlbumProject\src\main\java\com\mycompany\albumproject\helper\DatabaseHelper.java
